%YAML 1.1
%TAG !u! tag:unity3d.com,2011:
--- !u!1045 &1
EditorBuildSettings:
  m_ObjectHideFlags: 0
  serializedVersion: 2
  m_Scenes:
  - enabled: 1
    path: Assets/Scenes/Start.unity
    guid: 7f9db44936938bc4cb92fb48bfdd631d
  - enabled: 1
    path: Assets/Scenes/Personalization.unity
    guid: 9fc0d4010bbf28b4594072e72b8655ab
  - enabled: 1
    path: Assets/Scenes/ChivaDriving.unity
    guid: 3b7782831a24f38439d5ddb4bf323061
  m_configObjects: {}
